…
## Parsed with column specification:
## cols(
##   state = col_character(),
##   population = col_integer()
## )

Our original data set contains a plethora of information. In our analysis, we will not be using all of it (i.e.detailed descriptions that we cannot incorporate into our graphs) so we will select only the attributes that we plan on using in our data analysis. Observe the data set after the selection of relevant attributes.

db <-  
  dataset %>%
    select(caseID, city, state, latitude, longitude, fatalities, injuries, num_victims, date, avg_shooter_age, shooter_sex,         shooter_race, gun_general, shooter_fate, shooter_death, school, place, relationship, victims_general, motive_general,           mental_illness, year)
db

## # A tibble: 307 x 22
##    caseID city   state  latitude longitude fatalities injuries num_victims
##     <int> <chr>  <chr>     <dbl>     <dbl>      <int>    <int>       <int>
##  1      1 Austin Texas      30.2    - 97.8         16       32          48
##  2      2 Mesa   Arizo~     33.4    -112            5        1           6
##  3      3 New O~ Louis~     30.1    - 89.9          9       13          22
##  4      4 Chica~ Illin~     41.8    - 87.7          1        3           4
##  5      5 Olean  New Y~     42.1    - 78.4          3        7          10
##  6      6 Los A~ Calif~     34.2    -119            1        7           8
##  7      7 Fulle~ Calif~     33.9    -118            7        2           9
##  8      8 San D~ Calif~     32.9    -117            2        9          11
##  9      9 Colum~ South~     34.1    - 80.8          2        5           7
## 10     10 Las V~ Nevada     36.2    -115            1        2           3
## # ... with 297 more rows, and 14 more variables: date <chr>,
## #   avg_shooter_age <chr>, shooter_sex <chr>, shooter_race <chr>,
## #   gun_general <chr>, shooter_fate <chr>, shooter_death <chr>,
## #   school <chr>, place <chr>, relationship <chr>, victims_general <chr>,
## #   motive_general <chr>, mental_illness <chr>, year <int>
…
